[
  "EUR",
  "AED",
  "ALL",
  "AMD",
  "AOA",
  "AUD",
  "AZN",
  "BAM",
  "BBD",
  "BDT",
  "BGN",
  "BHD",
  "BMD",
  "BND",
  "BOB",
  "BRL",
  "BSD",
  "BTN",
  "BWP",
  "BZD",
  "CDF",
  "CHF",
  "NZD",
  "CLP",
  "CNY",
  "COP",
  "CRC",
  "CZK",
  "DJF",
  "DKK",
  "DOP",
  "DZD",
  "USD",
  "EGP",
  "ETB",
  "FJD",
  "GBP",
  "GEL",
  "GHS",
  "GIP",
  "GMD",
  "GTQ",
  "GYD",
  "HKD",
  "HNL",
  "HRK",
  "HUF",
  "IDR",
  "ILS",
  "INR",
  "ISK",
  "JMD",
  "KES",
  "KGS",
  "KHR",
  "KMF",
  "KWD",
  "KYD",
  "KZT",
  "LBP",
  "LKR",
  "MAD",
  "MDL",
  "MGA",
  "MKD",
  "MNT",
  "MOP",
  "MRO",
  "MUR",
  "MVR",
  "MWK",
  "MXN",
  "MYR",
  "MZN",
  "NAD",
  "NGN",
  "NIO",
  "NOK",
  "NPR",
  "OMR",
  "PAB",
  "PEN",
  "PGK",
  "PHP",
  "PKR",
  "PLN",
  "PYG",
  "QAR",
  "RON",
  "RSD",
  "SAR",
  "SBD",
  "SCR",
  "SEK",
  "SGD",
  "SLL",
  "SVC",
  "THB",
  "TJS",
  "TMT",
  "TOP",
  "TRY",
  "TTD",
  "TZS",
  "UAH",
  "UGX",
  "UYU",
  "UZS",
  "VEF",
  "VND",
  "VUV",
  "WST",
  "ZAR",
  "ZMW",
  "ZWL"
]
